…
``` r
library(ggplot2)
#> Warning: package 'ggplot2' was built under R version 3.6.3
```

Dalam contoh ini Anda akan membuat grafik dari dataset `diamonds` yang
tersedia dalam paket `ggplot2`. Anda dapat melihat isi serta dokumentasi
dari dataset tersebut dengan menjalankan `diamonds` dan `?diamonds`.
Berisi informasi apakah data `diamonds`? Silakan lakukan inspeksi pada
struktur data tersebut\!

``` r
diamonds
#> # A tibble: 53,940 x 10
#>    carat cut       color clarity depth table price     x     y     z
#>    <dbl> <ord>     <ord> <ord>   <dbl> <dbl> <int> <dbl> <dbl> <dbl>
#>  1 0.23  Ideal     E     SI2      61.5    55   326  3.95  3.98  2.43
#>  2 0.21  Premium   E     SI1      59.8    61   326  3.89  3.84  2.31
#>  3 0.23  Good      E     VS1      56.9    65   327  4.05  4.07  2.31
#>  4 0.290 Premium   I     VS2      62.4    58   334  4.2   4.23  2.63
#>  5 0.31  Good      J     SI2      63.3    58   335  4.34  4.35  2.75
#>  6 0.24  Very Good J     VVS2     62.8    57   336  3.94  3.96  2.48
#>  7 0.24  Very Good I     VVS1     62.3    57   336  3.95  3.98  2.47
#>  8 0.26  Very Good H     SI1      61.9    55   337  4.07  4.11  2.53
#>  9 0.22  Fair      E     VS2      65.1    61   337  3.87  3.78  2.49
#> 10 0.23  Very Good H     VS1      59.4    61   338  4     4.05  2.39
#> # ... with 53,930 more rows
…
``` r
un_smp <- vroom(here("data-raw", "un_smp.csv"))
#> Rows: 1,409
#> Columns: 8
#> Delimiter: ","
#> chr [2]: status, nama_sekolah
#> dbl [6]: tahun, jumlah_peserta, bahasa_indonesia, bahasa_inggris, matematika, ipa
#> 
#> Use `spec()` to retrieve the guessed column specification
#> Pass a specification to the `col_types` argument to quiet this message
un_smp
#> # A tibble: 1,409 x 8
#>    tahun status nama_sekolah jumlah_peserta bahasa_indonesia bahasa_inggris
#>    <dbl> <chr>  <chr>                 <dbl>            <dbl>          <dbl>
#>  1  2015 Negeri SMP NEGERI ~            441             86.5           82.3
#>  2  2015 Negeri SMP NEGERI ~            284             86.4           88.7
#>  3  2015 Negeri SMP NEGERI ~            291             86.2           81.4
#>  4  2015 Negeri SMP NEGERI ~            385             84.5           77.8
#>  5  2015 Negeri SMP NEGERI ~            333             89.2           91.3
#>  6  2015 Negeri SMP NEGERI ~            341             77.2           64.3
#>  7  2015 Negeri SMP NEGERI ~            352             86.4           86.3
#>  8  2015 Negeri SMP NEGERI ~            317             84.3           80.4
#>  9  2015 Negeri SMP NEGERI ~            450             83.4           78.2
#> 10  2015 Negeri SMP NEGERI ~            353             78.4           70.3
#> # ... with 1,399 more rows, and 2 more variables: matematika <dbl>, ipa <dbl>
```
…
