…
`un_smp_split` merupakan obyek R yang memiliki metadata atau informasi
baris mana dari data `un_smp` yang akan digunakan sebagai `data
training` dan `data testing`. Kita dapat mengakses data `training`
dengan cara menjalankan fungsi `training()` pada `un_smp_split`. Fungsi
apakah yang akan digunakan untuk mengakses data `testing`? Coba buatlah
baris kode untuk itu\!

**data `training`**

``` r
training(un_smp_split) 
#> # A tibble: 1,057 x 8
#>    tahun status nama_sekolah jumlah_peserta bahasa_indonesia bahasa_inggris
#>    <chr> <chr>  <chr>                 <dbl>            <dbl>          <dbl>
#>  1 2015  Negeri SMP NEGERI ~            284             86.4           88.7
#>  2 2015  Negeri SMP NEGERI ~            291             86.2           81.4
#>  3 2015  Negeri SMP NEGERI ~            385             84.5           77.8
#>  4 2015  Negeri SMP NEGERI ~            333             89.2           91.3
#>  5 2015  Negeri SMP NEGERI ~            341             77.2           64.3
#>  6 2015  Negeri SMP NEGERI ~            352             86.4           86.3
#>  7 2015  Negeri SMP NEGERI ~            317             84.3           80.4
#>  8 2015  Negeri SMP NEGERI ~            353             78.4           70.3
#>  9 2015  Negeri SMP NEGERI ~            448             81.3           74.7
#> 10 2015  Negeri SMP NEGERI ~            443             84.9           79.9
#> # ... with 1,047 more rows, and 2 more variables: matematika <dbl>, ipa <dbl>
```

**data `testing`**

``` r
testing(un_smp_split)
#> # A tibble: 352 x 8
#>    tahun status nama_sekolah jumlah_peserta bahasa_indonesia bahasa_inggris
#>    <chr> <chr>  <chr>                 <dbl>            <dbl>          <dbl>
#>  1 2015  Negeri SMP NEGERI ~            441             86.5           82.3
#>  2 2015  Negeri SMP NEGERI ~            450             83.4           78.2
#>  3 2015  Negeri SMP NEGERI ~            282             77.7           63.4
#>  4 2015  Negeri SMP NEGERI ~            392             80.8           75.1
#>  5 2015  Negeri SMP NEGERI ~            420             81.5           75.5
#>  6 2015  Negeri SMP NEGERI ~            399             81.4           74.3
#>  7 2015  Negeri SMP NEGERI ~            285             81.3           75.3
#>  8 2015  Negeri SMP NEGERI ~            343             85.4           82.8
#>  9 2015  Negeri SMP NEGERI ~            342             76.6           61.9
#> 10 2015  Negeri SMP NEGERI ~            283             79.0           67.0
#> # ... with 342 more rows, and 2 more variables: matematika <dbl>, ipa <dbl>
```
…
