…
``` r
sherlock_tidy <- sherlock %>% 
  filter(!is.na(text)) %>% 
  group_by(story) %>%
  unnest_tokens(word, text) %>%
  ungroup() %>%
  anti_join(stop_words)
#> Joining, by = "word"

sherlock_tidy
#> # A tibble: 32,030 x 2
#>    story                             word     
#>    <chr>                             <chr>    
#>  1 ADVENTURE I. A SCANDAL IN BOHEMIA adventure
#>  2 ADVENTURE I. A SCANDAL IN BOHEMIA scandal  
#>  3 ADVENTURE I. A SCANDAL IN BOHEMIA bohemia  
#>  4 ADVENTURE I. A SCANDAL IN BOHEMIA sherlock 
#>  5 ADVENTURE I. A SCANDAL IN BOHEMIA holmes   
#>  6 ADVENTURE I. A SCANDAL IN BOHEMIA woman    
#>  7 ADVENTURE I. A SCANDAL IN BOHEMIA seldom   
#>  8 ADVENTURE I. A SCANDAL IN BOHEMIA heard    
#>  9 ADVENTURE I. A SCANDAL IN BOHEMIA mention  
#> 10 ADVENTURE I. A SCANDAL IN BOHEMIA eyes     
#> # ... with 32,020 more rows
```

Analisa apa saja yang dilakukan pada setiap tahap transformasi data
`sherlock` menjadi `sherlock_tidy`? Apa isi dari `stop_words`?

Kita dapat menghitung frekuensi penggunaan kata untuk setiap subcerita
dengan menggunakan fungsi `count()`. Tambahkanlah argumen untuk
mengurutkan frekuensi kata (`n`) dari paling tinggi hingga paling
rendah\!

``` r
sherlock_tidy %>% 
  count(story, word, sort = TRUE)
#> # A tibble: 17,774 x 3
#>    story                                     word       n
#>    <chr>                                     <chr>  <int>
#>  1 VIII. THE ADVENTURE OF THE SPECKLED BAND  holmes    56
#>  2 ADVENTURE II. THE RED-HEADED LEAGUE       holmes    53
#>  3 ADVENTURE I. A SCANDAL IN BOHEMIA         holmes    48
#>  4 ADVENTURE IV. THE BOSCOMBE VALLEY MYSTERY holmes    47
#>  5 ADVENTURE III. A CASE OF IDENTITY         holmes    46
#>  6 XII. THE ADVENTURE OF THE COPPER BEECHES  holmes    43
#>  7 X. THE ADVENTURE OF THE NOBLE BACHELOR    st        42
#>  8 X. THE ADVENTURE OF THE NOBLE BACHELOR    simon     39
#>  9 VII. THE ADVENTURE OF THE BLUE CARBUNCLE  holmes    38
#> 10 X. THE ADVENTURE OF THE NOBLE BACHELOR    lord      37
#> # ... with 17,764 more rows
```

Selanjutnya Kita dapat dapat mengetahui kata penting apa yang terdapat
dapat suatu subcerita dengan menggunakan analisis Term Frequency -
Inverse Document Frequency (tf-idf). Fungsi `bind_tf_idf()` dapat
dimanfaatkan untuk melakukan hal tersebut. Simpanlah hasil keluaran
fungsi tersebut dalam obyek bernama `sherlock_tfidf` dan cetaklah
hasilnya pada layar\!

``` r
sherlock_tfidf <- sherlock_tidy %>% 
  count(story, word, sort = TRUE) %>% 
  bind_tf_idf(word, story, n)

sherlock_tfidf
#> # A tibble: 17,774 x 6
#>    story                                     word       n     tf   idf  tf_idf
#>    <chr>                                     <chr>  <int>  <dbl> <dbl>   <dbl>
#>  1 VIII. THE ADVENTURE OF THE SPECKLED BAND  holmes    56 0.0175 0     0      
#>  2 ADVENTURE II. THE RED-HEADED LEAGUE       holmes    53 0.0189 0     0      
#>  3 ADVENTURE I. A SCANDAL IN BOHEMIA         holmes    48 0.0177 0     0      
#>  4 ADVENTURE IV. THE BOSCOMBE VALLEY MYSTERY holmes    47 0.0164 0     0      
#>  5 ADVENTURE III. A CASE OF IDENTITY         holmes    46 0.0222 0     0      
#>  6 XII. THE ADVENTURE OF THE COPPER BEECHES  holmes    43 0.0147 0     0      
#>  7 X. THE ADVENTURE OF THE NOBLE BACHELOR    st        42 0.0168 0.539 0.00906
#>  8 X. THE ADVENTURE OF THE NOBLE BACHELOR    simon     39 0.0156 2.48  0.0388 
#>  9 VII. THE ADVENTURE OF THE BLUE CARBUNCLE  holmes    38 0.0155 0     0      
#> 10 X. THE ADVENTURE OF THE NOBLE BACHELOR    lord      37 0.0148 0.875 0.0130 
#> # ... with 17,764 more rows
```
…
Bagaimanakah kategorisasi subcerita Sherlock Holmes dalam 5 topik yang
telah kita buat pemodelannya tersebut? Kita dapat mengetahuinya dengan
cara mengamati peluang suatu topik per dokumen yang dinyatakan sebagai
nilai \(gamma\). Fungsi `tidy()` dari paket `broom` dapat digunakan
untuk melakukan hal tersebut. Perhatikan contoh di bawah ini:

``` r
sherlock_gamma <- sherlock_lda %>% 
  tidy(matrix = "gamma") %>% 
  rename(story = document) %>% 
  arrange(story, desc(gamma))

sherlock_gamma
#> # A tibble: 60 x 3
#>    story                               topic      gamma
#>    <chr>                               <int>      <dbl>
#>  1 ADVENTURE I. A SCANDAL IN BOHEMIA       3 1.00      
#>  2 ADVENTURE I. A SCANDAL IN BOHEMIA       1 0.00000474
#>  3 ADVENTURE I. A SCANDAL IN BOHEMIA       2 0.00000474
#>  4 ADVENTURE I. A SCANDAL IN BOHEMIA       5 0.00000474
#>  5 ADVENTURE I. A SCANDAL IN BOHEMIA       4 0.00000474
#>  6 ADVENTURE II. THE RED-HEADED LEAGUE     5 1.00      
#>  7 ADVENTURE II. THE RED-HEADED LEAGUE     1 0.00000459
#>  8 ADVENTURE II. THE RED-HEADED LEAGUE     2 0.00000459
#>  9 ADVENTURE II. THE RED-HEADED LEAGUE     4 0.00000459
#> 10 ADVENTURE II. THE RED-HEADED LEAGUE     3 0.00000459
#> # ... with 50 more rows
```
…
``` r
sherlock_beta <- sherlock_lda %>% 
  tidy(matrix = "beta") %>% 
  rename(word = term) %>% 
  arrange(topic, desc(beta))

sherlock_beta
#> # A tibble: 37,190 x 3
#>    topic word      beta
#>    <int> <chr>    <dbl>
#>  1     1 holmes 0.0124 
#>  2     1 st     0.00905
#>  3     1 simon  0.00821
#>  4     1 lord   0.00779
#>  5     1 time   0.00589
#>  6     1 hand   0.00526
#>  7     1 papers 0.00505
#>  8     1 day    0.00484
#>  9     1 lady   0.00484
#> 10     1 matter 0.00484
#> # ... with 37,180 more rows

sherlock_beta %>% 
  group_by(topic) %>% 
  top_n(10, beta)  
#> # A tibble: 51 x 3
#> # Groups:   topic [5]
#>    topic word      beta
#>    <int> <chr>    <dbl>
#>  1     1 holmes 0.0124 
#>  2     1 st     0.00905
#>  3     1 simon  0.00821
#>  4     1 lord   0.00779
#>  5     1 time   0.00589
#>  6     1 hand   0.00526
#>  7     1 papers 0.00505
#>  8     1 day    0.00484
#>  9     1 lady   0.00484
#> 10     1 matter 0.00484
#> # ... with 41 more rows
```
…
